[gd_resource type="SpatialMaterial" format=2]

[resource]
albedo_color = Color( 0.168627, 0.0588235, 0.329412, 1 )
emission_enabled = true
emission = Color( 1, 0.854902, 0.270588, 1 )
emission_energy = 1.0
emission_operator = 0
emission_on_uv2 = false
