[gd_scene load_steps=1 format=2]

[ext_resource id=1 path="../../assets/materials/VehicleBase.tres" type="SpatialMaterial"]

[ext_resource id=2 path="../../assets/materials/VehicleGlow.tres" type="SpatialMaterial"]

[sub_resource id=1 type="ArrayMesh"]

resource_name = "Cube"
surfaces/0 = {
	"material":ExtResource(1),
	"primitive":4,
	"arrays":[
		Vector3Array(-2.0, 0.5, 4.05, -1.8, 1.5, 3.25, -1.8, 1.5, -3.15, -2.0, 0.5, -3.15, -2.0, 0.5, -3.15, -1.8, 1.5, -3.15, 1.8, 1.5, -3.15, 2.0, 0.5, -3.15, 2.0, 0.5, -3.15, 1.8, 1.5, -3.15, 1.8, 1.5, 3.25, 2.0, 0.5, 4.05, 2.0, 0.5, 4.05, 1.8, 1.5, 3.25, -1.8, 1.5, 3.25, -2.0, 0.5, 4.05, -2.0, 0.5, -3.15, 2.0, 0.5, -3.15, 2.0, 0.5, 4.05, -2.0, 0.5, 4.05, 1.8, 1.5, -3.15, -1.8, 1.5, -3.15, -1.8, 1.5, 3.25, 1.8, 1.5, 3.25),
		Vector3Array(-0.980581, 0.196116, 0.0, -0.980581, 0.196116, 0.0, -0.980581, 0.196116, 0.0, -0.980581, 0.196116, 0.0, 0.0, -1.7254e-07, -1.0, 0.0, -1.7254e-07, -1.0, 0.0, -1.7254e-07, -1.0, 0.0, -1.7254e-07, -1.0, 0.980581, 0.196116, 0.0, 0.980581, 0.196116, 0.0, 0.980581, 0.196116, 0.0, 0.980581, 0.196116, 0.0, 0.0, 0.624695, 0.780869, 0.0, 0.624695, 0.780869, 0.0, 0.624695, 0.780869, 0.0, 0.624695, 0.780869, 0.0, -1.0, 0.0, 0.0, -1.0, 0.0, 0.0, -1.0, 0.0, 0.0, -1.0, 0.0, 0.0, 1.0, 0.0, 0.0, 1.0, 0.0, 0.0, 1.0, 0.0, 0.0, 1.0, 0.0),
		FloatArray(0.154303, 0.771517, -0.617213, 1.0, 0.159507, 0.797538, -0.5818, 1.0, 0.196116, 0.980581, 0.0, 1.0, 0.195722, 0.978613, -0.0633229, 1.0, 0.124088, 0.992271, -1.71206e-07, 1.0, 0.196116, 0.980581, -1.69189e-07, 1.0, -0.140384, 0.990097, -1.70831e-07, 1.0, -0.196116, 0.980581, -1.69189e-07, 1.0, -0.195722, 0.978613, -0.0633229, 1.0, -0.196116, 0.980581, 0.0, 1.0, -0.159507, 0.797538, -0.5818, 1.0, -0.154303, 0.771517, -0.617213, 1.0, -0.084166, 0.778098, -0.622479, 1.0, -0.154303, 0.771517, -0.617213, 1.0, 0.0968826, 0.777195, -0.621756, 1.0, 0.154303, 0.771517, -0.617213, 1.0, 1.0, 0.0, 0.0, 1.0, 1.0, 0.0, 0.0, 1.0, 1.0, 0.0, 0.0, 1.0, 1.0, 0.0, 0.0, 1.0, -1.0, 0.0, 0.0, 1.0, -1.0, 0.0, 0.0, 1.0, -1.0, 0.0, 0.0, 1.0, -1.0, 0.0, 0.0, 1.0),
		null, ; no Vertex Colors,
		Vector2Array(0.375, 1.0, 0.625, 1.0, 0.625, 0.75, 0.375, 0.75, 0.375, 0.75, 0.625, 0.75, 0.625, 0.5, 0.375, 0.5, 0.375, 0.5, 0.625, 0.5, 0.625, 0.25, 0.375, 0.25, 0.375, 0.25, 0.625, 0.25, 0.625, 0.0, 0.375, 0.0, 0.125, 0.5, 0.375, 0.5, 0.375, 0.25, 0.125, 0.25, 0.625, 0.5, 0.875, 0.5, 0.875, 0.25, 0.625, 0.25),
		null, ; No UV2,
		null, ; No Bones,
		null, ; No Weights,
		IntArray(0, 2, 1, 0, 3, 2, 4, 6, 5, 4, 7, 6, 8, 10, 9, 8, 11, 10, 12, 14, 13, 12, 15, 14, 16, 18, 17, 16, 19, 18, 20, 22, 21, 20, 23, 22)
	],
	"morph_arrays":[]
}

[sub_resource id=2 type="ArrayMesh"]

resource_name = "Cube"
surfaces/0 = {
	"material":ExtResource(2),
	"primitive":4,
	"arrays":[
		Vector3Array(-1.99019, 0.549029, 3.94723, -1.80981, 1.45097, 3.22567, -1.77273, 1.46159, 3.23324, -1.97053, 0.516883, 4.01331, -1.80981, 1.45097, 3.22567, -1.99019, 0.549029, 3.94723, -2.02947, 0.483117, 4.08669, -1.82727, 1.53841, 3.26676, -1.80981, 1.45097, 3.22567, -1.80981, 1.45097, -3.1, -1.77437, 1.46874, -3.12058, -1.77273, 1.46159, 3.23324, -1.80981, 1.45097, -3.1, -1.80981, 1.45097, 3.22567, -1.82727, 1.53841, 3.26676, -1.82563, 1.53126, -3.17942, -1.80981, 1.45097, -3.1, -1.99019, 0.549029, -3.1, -1.96817, 0.526096, -3.12162, -1.77437, 1.46874, -3.12058, -1.99019, 0.549029, -3.1, -1.80981, 1.45097, -3.1, -1.82563, 1.53126, -3.17942, -2.03183, 0.473904, -3.17838, -1.99019, 0.549029, -3.1, -1.99019, 0.549029, 3.94723, -1.97053, 0.516883, 4.01331, -1.96817, 0.526096, -3.12162, -1.99019, 0.549029, 3.94723, -1.99019, 0.549029, -3.1, -2.03183, 0.473904, -3.17838, -2.02947, 0.483117, 4.08669, -1.93901, 0.55, -3.15, -1.75901, 1.45, -3.15, -1.77437, 1.46874, -3.12058, -1.96817, 0.526096, -3.12162, -1.75901, 1.45, -3.15, -1.93901, 0.55, -3.15, -2.03183, 0.473904, -3.17838, -1.82563, 1.53126, -3.17942, -1.75901, 1.45, -3.15, 1.75901, 1.45, -3.15, 1.77437, 1.46874, -3.12058, -1.77437, 1.46874, -3.12058, 1.75901, 1.45, -3.15, -1.75901, 1.45, -3.15, -1.82563, 1.53126, -3.17942, 1.82563, 1.53126, -3.17942, 1.75901, 1.45, -3.15, 1.93901, 0.55, -3.15, 1.96817, 0.526096, -3.12162, 1.77437, 1.46874, -3.12058, 1.93901, 0.55, -3.15, 1.75901, 1.45, -3.15, 1.82563, 1.53126, -3.17942, 2.03183, 0.473904, -3.17838, 1.93901, 0.55, -3.15, -1.93901, 0.55, -3.15, -1.96817, 0.526096, -3.12162, 1.96817, 0.526096, -3.12162, -1.93901, 0.55, -3.15, 1.93901, 0.55, -3.15, 2.03183, 0.473904, -3.17838, -2.03183, 0.473904, -3.17838, 1.99019, 0.549029, -3.1, 1.80981, 1.45097, -3.1, 1.77437, 1.46874, -3.12058, 1.96817, 0.526096, -3.12162, 1.80981, 1.45097, -3.1, 1.99019, 0.549029, -3.1, 2.03183, 0.473904, -3.17838, 1.82563, 1.53126, -3.17942, 1.80981, 1.45097, -3.1, 1.80981, 1.45097, 3.22567, 1.77273, 1.46159, 3.23324, 1.77437, 1.46874, -3.12058, 1.80981, 1.45097, 3.22567, 1.80981, 1.45097, -3.1, 1.82563, 1.53126, -3.17942, 1.82727, 1.53841, 3.26676, 1.80981, 1.45097, 3.22567, 1.99019, 0.549029, 3.94723, 1.97053, 0.516883, 4.01331, 1.77273, 1.46159, 3.23324, 1.99019, 0.549029, 3.94723, 1.80981, 1.45097, 3.22567, 1.82727, 1.53841, 3.26676, 2.02947, 0.483117, 4.08669, 1.99019, 0.549029, 3.94723, 1.99019, 0.549029, -3.1, 1.96817, 0.526096, -3.12162, 1.97053, 0.516883, 4.01331, 1.99019, 0.549029, -3.1, 1.99019, 0.549029, 3.94723, 2.02947, 0.483117, 4.08669, 2.03183, 0.473904, -3.17838, 1.94159, 0.539043, 4.01877, 1.7572, 1.46096, 3.28123, 1.77273, 1.46159, 3.23324, 1.97053, 0.516883, 4.01331, 1.7572, 1.46096, 3.28123, 1.94159, 0.539043, 4.01877, 2.02947, 0.483117, 4.08669, 1.82727, 1.53841, 3.26676, 1.7572, 1.46096, 3.28123, -1.7572, 1.46096, 3.28123, -1.77273, 1.46159, 3.23324, 1.77273, 1.46159, 3.23324, -1.7572, 1.46096, 3.28123, 1.7572, 1.46096, 3.28123, 1.82727, 1.53841, 3.26676, -1.82727, 1.53841, 3.26676, -1.7572, 1.46096, 3.28123, -1.94159, 0.539043, 4.01877, -1.97053, 0.516883, 4.01331, -1.77273, 1.46159, 3.23324, -1.94159, 0.539043, 4.01877, -1.7572, 1.46096, 3.28123, -1.82727, 1.53841, 3.26676, -2.02947, 0.483117, 4.08669, -1.94159, 0.539043, 4.01877, 1.94159, 0.539043, 4.01877, 1.97053, 0.516883, 4.01331, -1.97053, 0.516883, 4.01331, 1.94159, 0.539043, 4.01877, -1.94159, 0.539043, 4.01877, -2.02947, 0.483117, 4.08669, 2.02947, 0.483117, 4.08669, -1.95, 0.5, -3.1, 1.95, 0.5, -3.1, 1.96817, 0.526096, -3.12162, -1.96817, 0.526096, -3.12162, 1.95, 0.5, -3.1, -1.95, 0.5, -3.1, -2.03183, 0.473904, -3.17838, 2.03183, 0.473904, -3.17838, 1.95, 0.5, -3.1, 1.95, 0.5, 4.0, 1.97053, 0.516883, 4.01331, 1.96817, 0.526096, -3.12162, 1.95, 0.5, 4.0, 1.95, 0.5, -3.1, 2.03183, 0.473904, -3.17838, 2.02947, 0.483117, 4.08669, 1.95, 0.5, 4.0, -1.95, 0.5, 4.0, -1.97053, 0.516883, 4.01331, 1.97053, 0.516883, 4.01331, -1.95, 0.5, 4.0, 1.95, 0.5, 4.0, 2.02947, 0.483117, 4.08669, -2.02947, 0.483117, 4.08669, -1.95, 0.5, 4.0, -1.95, 0.5, -3.1, -1.96817, 0.526096, -3.12162, -1.97053, 0.516883, 4.01331, -1.95, 0.5, -3.1, -1.95, 0.5, 4.0, -2.02947, 0.483117, 4.08669, -2.03183, 0.473904, -3.17838, 1.75, 1.5, -3.1, -1.75, 1.5, -3.1, -1.77437, 1.46874, -3.12058, 1.77437, 1.46874, -3.12058, -1.75, 1.5, -3.1, 1.75, 1.5, -3.1, 1.82563, 1.53126, -3.17942, -1.82563, 1.53126, -3.17942, -1.75, 1.5, -3.1, -1.75, 1.5, 3.2, -1.77273, 1.46159, 3.23324, -1.77437, 1.46874, -3.12058, -1.75, 1.5, 3.2, -1.75, 1.5, -3.1, -1.82563, 1.53126, -3.17942, -1.82727, 1.53841, 3.26676, -1.75, 1.5, 3.2, 1.75, 1.5, 3.2, 1.77273, 1.46159, 3.23324, -1.77273, 1.46159, 3.23324, 1.75, 1.5, 3.2, -1.75, 1.5, 3.2, -1.82727, 1.53841, 3.26676, 1.82727, 1.53841, 3.26676, 1.75, 1.5, 3.2, 1.75, 1.5, -3.1, 1.77437, 1.46874, -3.12058, 1.77273, 1.46159, 3.23324, 1.75, 1.5, -3.1, 1.75, 1.5, 3.2, 1.82727, 1.53841, 3.26676, 1.82563, 1.53126, -3.17942),
		Vector3Array(0.544269, -0.593549, -0.59285, 0.544269, -0.593549, -0.59285, 0.544269, -0.593549, -0.59285, 0.544269, -0.593549, -0.59285, -0.954546, -0.0454214, -0.294581, -0.954546, -0.0454214, -0.294581, -0.954546, -0.0454214, -0.294581, -0.954546, -0.0454214, -0.294581, 0.364458, -0.93122, -0.000571893, 0.364458, -0.93122, -0.000571893, 0.364458, -0.93122, -0.000571893, 0.364458, -0.93122, -0.000571893, -0.980864, -0.194696, -1.74253e-05, -0.980864, -0.194696, -1.74253e-05, -0.980864, -0.194696, -1.74253e-05, -0.980864, -0.194696, -1.74253e-05, 0.580804, -0.118273, 0.805406, 0.580804, -0.118273, 0.805406, 0.580804, -0.118273, 0.805406, 0.580804, -0.118273, 0.805406, -0.922001, 0.182102, 0.341691, -0.922001, 0.182102, 0.341691, -0.922001, 0.182102, 0.341691, -0.922001, 0.182102, 0.341691, 0.797135, 0.603801, 0.000525039, 0.797135, 0.603801, 0.000525039, 0.797135, 0.603801, 0.000525039, 0.797135, 0.603801, 0.000525039, -0.867424, 0.49757, -0.000177141, -0.867424, 0.49757, -0.000177141, -0.867424, 0.49757, -0.000177141, -0.867424, 0.49757, -0.000177141, 0.788886, -0.160366, 0.593246, 0.788886, -0.160366, 0.593246, 0.788886, -0.160366, 0.593246, 0.788886, -0.160366, 0.593246, 0.338134, -0.0672154, -0.938695, 0.338134, -0.0672154, -0.938695, 0.338134, -0.0672154, -0.938695, 0.338134, -0.0672154, -0.938695, 0.0, -0.843476, 0.537167, 0.0, -0.843476, 0.537167, 0.0, -0.843476, 0.537167, 0.0, -0.843476, 0.537167, 0.0, -0.340426, -0.940271, 0.0, -0.340426, -0.940271, 0.0, -0.340426, -0.940271, 0.0, -0.340426, -0.940271, -0.788886, -0.160366, 0.593246, -0.788886, -0.160366, 0.593246, -0.788886, -0.160366, 0.593246, -0.788886, -0.160366, 0.593246, -0.338134, -0.0672154, -0.938695, -0.338134, -0.0672154, -0.938695, -0.338134, -0.0672154, -0.938695, -0.338134, -0.0672154, -0.938695, 0.0, 0.764876, 0.644177, 0.0, 0.764876, 0.644177, 0.0, 0.764876, 0.644177, 0.0, 0.764876, 0.644177, 0.0, 0.349462, -0.936951, 0.0, 0.349462, -0.936951, 0.0, 0.349462, -0.936951, 0.0, 0.349462, -0.936951, -0.580804, -0.118273, 0.805406, -0.580804, -0.118273, 0.805406, -0.580804, -0.118273, 0.805406, -0.580804, -0.118273, 0.805406, 0.922001, 0.182102, 0.341691, 0.922001, 0.182102, 0.341691, 0.922001, 0.182102, 0.341691, 0.922001, 0.182102, 0.341691, -0.364458, -0.93122, -0.000571893, -0.364458, -0.93122, -0.000571893, -0.364458, -0.93122, -0.000571893, -0.364458, -0.93122, -0.000571893, 0.980864, -0.194696, -1.74253e-05, 0.980864, -0.194696, -1.74253e-05, 0.980864, -0.194696, -1.74253e-05, 0.980864, -0.194696, -1.74253e-05, -0.544269, -0.593549, -0.59285, -0.544269, -0.593549, -0.59285, -0.544269, -0.593549, -0.59285, -0.544269, -0.593549, -0.59285, 0.954546, -0.0454214, -0.294583, 0.954546, -0.0454214, -0.294583, 0.954546, -0.0454214, -0.294583, 0.954546, -0.0454214, -0.294583, -0.797135, 0.603801, 0.000525039, -0.797135, 0.603801, 0.000525039, -0.797135, 0.603801, 0.000525039, -0.797135, 0.603801, 0.000525039, 0.867424, 0.49757, -0.000177141, 0.867424, 0.49757, -0.000177141, 0.867424, 0.49757, -0.000177141, 0.867424, 0.49757, -0.000177141, -0.753908, -0.50043, -0.425666, -0.753908, -0.50043, -0.425666, -0.753908, -0.50043, -0.425666, -0.753908, -0.50043, -0.425666, -0.334732, 0.541839, 0.770951, -0.334732, 0.541839, 0.770951, -0.334732, 0.541839, 0.770951, -0.334732, 0.541839, 0.770951, 0.0, -0.999912, -0.0132792, 0.0, -0.999912, -0.0132792, 0.0, -0.999912, -0.0132792, 0.0, -0.999912, -0.0132792, 0.0, 0.183683, 0.982985, 0.0, 0.183683, 0.982985, 0.0, 0.183683, 0.982985, 0.0, 0.183683, 0.982985, 0.753908, -0.500431, -0.425666, 0.753908, -0.500431, -0.425666, 0.753908, -0.500431, -0.425666, 0.753908, -0.500431, -0.425666, 0.334732, 0.541838, 0.770951, 0.334732, 0.541838, 0.770951, 0.334732, 0.541838, 0.770951, 0.334732, 0.541838, 0.770951, 0.0, 0.239131, -0.970987, 0.0, 0.239131, -0.970987, 0.0, 0.239131, -0.970987, 0.0, 0.239131, -0.970987, 0.0, 0.772007, 0.635613, 0.0, 0.772007, 0.635613, 0.0, 0.772007, 0.635613, 0.0, 0.772007, 0.635613, 0.0, 0.637929, 0.770095, 0.0, 0.637929, 0.770095, 0.0, 0.637929, 0.770095, 0.0, 0.637929, 0.770095, 0.0, -0.948796, 0.315889, 0.0, -0.948796, 0.315889, 0.0, -0.948796, 0.315889, 0.0, -0.948796, 0.315889, -0.743102, 0.669178, 0.000556443, -0.743102, 0.669178, 0.000556443, -0.743102, 0.669178, 0.000556443, -0.743102, 0.669178, 0.000556443, -0.257497, -0.966279, 0.000577413, -0.257497, -0.966279, 0.000577413, -0.257497, -0.966279, 0.000577413, -0.257497, -0.966279, 0.000577413, 0.0, 0.619049, -0.785352, 0.0, 0.619049, -0.785352, 0.0, 0.619049, -0.785352, 0.0, 0.619049, -0.785352, 0.0, -0.98156, -0.191152, 0.0, -0.98156, -0.191152, 0.0, -0.98156, -0.191152, 0.0, -0.98156, -0.191152, 0.743102, 0.669178, 0.000556443, 0.743102, 0.669178, 0.000556443, 0.743102, 0.669178, 0.000556443, 0.743102, 0.669178, 0.000556443, 0.257497, -0.966279, 0.000577413, 0.257497, -0.966279, 0.000577413, 0.257497, -0.966279, 0.000577413, 0.257497, -0.966279, 0.000577413, 0.0, -0.549814, 0.835287, 0.0, -0.549814, 0.835287, 0.0, -0.549814, 0.835287, 0.0, -0.549814, 0.835287, 0.0, 0.930504, 0.366281, 0.0, 0.930504, 0.366281, 0.0, 0.930504, 0.366281, 0.0, 0.930504, 0.366281, 0.82843, -0.560092, -0.000423854, 0.82843, -0.560092, -0.000423854, 0.82843, -0.560092, -0.000423854, 0.82843, -0.560092, -0.000423854, 0.414659, 0.909977, -0.000456439, 0.414659, 0.909977, -0.000456439, 0.414659, 0.909977, -0.000456439, 0.414659, 0.909977, -0.000456439, 0.0, -0.654399, -0.756149, 0.0, -0.654399, -0.756149, 0.0, -0.654399, -0.756149, 0.0, -0.654399, -0.756149, 0.0, 0.866808, -0.498643, 0.0, 0.866808, -0.498643, 0.0, 0.866808, -0.498643, 0.0, 0.866808, -0.498643, -0.82843, -0.560092, -0.000423854, -0.82843, -0.560092, -0.000423854, -0.82843, -0.560092, -0.000423854, -0.82843, -0.560092, -0.000423854, -0.414659, 0.909977, -0.000456439, -0.414659, 0.909977, -0.000456439, -0.414659, 0.909977, -0.000456439, -0.414659, 0.909977, -0.000456439),
		FloatArray(1.0, 0.0, 0.0, -1.0, 1.0, 0.0, 0.0, -1.0, 1.0, 0.0, 0.0, -1.0, 1.0, 0.0, 0.0, -1.0, 1.0, 0.0, 0.0, -1.0, 1.0, 0.0, 0.0, -1.0, 1.0, 0.0, 0.0, -1.0, 1.0, 0.0, 0.0, -1.0, 1.0, 0.0, 0.0, -1.0, 1.0, 0.0, 0.0, -1.0, 1.0, 0.0, 0.0, -1.0, 1.0, 0.0, 0.0, -1.0, 1.0, 0.0, 0.0, -1.0, 1.0, 0.0, 0.0, -1.0, 1.0, 0.0, 0.0, -1.0, 1.0, 0.0, 0.0, -1.0, 1.0, 0.0, 0.0, -1.0, 1.0, 0.0, 0.0, -1.0, 1.0, 0.0, 0.0, -1.0, 1.0, 0.0, 0.0, -1.0, 1.0, 0.0, 0.0, -1.0, 1.0, 0.0, 0.0, -1.0, 1.0, 0.0, 0.0, -1.0, 1.0, 0.0, 0.0, -1.0, 1.0, 0.0, 0.0, -1.0, 1.0, 0.0, 0.0, -1.0, 1.0, 0.0, 0.0, -1.0, 1.0, 0.0, 0.0, -1.0, 1.0, 0.0, 0.0, -1.0, 1.0, 0.0, 0.0, -1.0, 1.0, 0.0, 0.0, -1.0, 1.0, 0.0, 0.0, -1.0, 1.0, 0.0, 0.0, -1.0, 1.0, 0.0, 0.0, -1.0, 1.0, 0.0, 0.0, -1.0, 1.0, 0.0, 0.0, -1.0, 1.0, 0.0, 0.0, -1.0, 1.0, 0.0, 0.0, -1.0, 1.0, 0.0, 0.0, -1.0, 1.0, 0.0, 0.0, -1.0, 1.0, 0.0, 0.0, -1.0, 1.0, 0.0, 0.0, -1.0, 1.0, 0.0, 0.0, -1.0, 1.0, 0.0, 0.0, -1.0, 1.0, 0.0, 0.0, -1.0, 1.0, 0.0, 0.0, -1.0, 1.0, 0.0, 0.0, -1.0, 1.0, 0.0, 0.0, -1.0, 1.0, 0.0, 0.0, -1.0, 1.0, 0.0, 0.0, -1.0, 1.0, 0.0, 0.0, -1.0, 1.0, 0.0, 0.0, -1.0, 1.0, 0.0, 0.0, -1.0, 1.0, 0.0, 0.0, -1.0, 1.0, 0.0, 0.0, -1.0, 1.0, 0.0, 0.0, -1.0, 1.0, 0.0, 0.0, -1.0, 1.0, 0.0, 0.0, -1.0, 1.0, 0.0, 0.0, -1.0, 1.0, 0.0, 0.0, -1.0, 1.0, 0.0, 0.0, -1.0, 1.0, 0.0, 0.0, -1.0, 1.0, 0.0, 0.0, -1.0, 1.0, 0.0, 0.0, -1.0, 1.0, 0.0, 0.0, -1.0, 1.0, 0.0, 0.0, -1.0, 1.0, 0.0, 0.0, -1.0, 1.0, 0.0, 0.0, -1.0, 1.0, 0.0, 0.0, -1.0, 1.0, 0.0, 0.0, -1.0, 1.0, 0.0, 0.0, -1.0, 1.0, 0.0, 0.0, -1.0, 1.0, 0.0, 0.0, -1.0, 1.0, 0.0, 0.0, -1.0, 1.0, 0.0, 0.0, -1.0, 1.0, 0.0, 0.0, -1.0, 1.0, 0.0, 0.0, -1.0, 1.0, 0.0, 0.0, -1.0, 1.0, 0.0, 0.0, -1.0, 1.0, 0.0, 0.0, -1.0, 1.0, 0.0, 0.0, -1.0, 1.0, 0.0, 0.0, -1.0, 1.0, 0.0, 0.0, -1.0, 1.0, 0.0, 0.0, -1.0, 1.0, 0.0, 0.0, -1.0, 1.0, 0.0, 0.0, -1.0, 1.0, 0.0, 0.0, -1.0, 1.0, 0.0, 0.0, -1.0, 1.0, 0.0, 0.0, -1.0, 1.0, 0.0, 0.0, -1.0, 1.0, 0.0, 0.0, -1.0, 1.0, 0.0, 0.0, -1.0, 1.0, 0.0, 0.0, -1.0, 1.0, 0.0, 0.0, -1.0, 1.0, 0.0, 0.0, -1.0, 1.0, 0.0, 0.0, -1.0, 1.0, 0.0, 0.0, -1.0, 1.0, 0.0, 0.0, -1.0, 1.0, 0.0, 0.0, -1.0, 1.0, 0.0, 0.0, -1.0, 1.0, 0.0, 0.0, -1.0, 1.0, 0.0, 0.0, -1.0, 1.0, 0.0, 0.0, -1.0, 1.0, 0.0, 0.0, -1.0, 1.0, 0.0, 0.0, -1.0, 1.0, 0.0, 0.0, -1.0, 1.0, 0.0, 0.0, -1.0, 1.0, 0.0, 0.0, -1.0, 1.0, 0.0, 0.0, -1.0, 1.0, 0.0, 0.0, -1.0, 1.0, 0.0, 0.0, -1.0, 1.0, 0.0, 0.0, -1.0, 1.0, 0.0, 0.0, -1.0, 1.0, 0.0, 0.0, -1.0, 1.0, 0.0, 0.0, -1.0, 1.0, 0.0, 0.0, -1.0, 1.0, 0.0, 0.0, -1.0, 1.0, 0.0, 0.0, -1.0, 1.0, 0.0, 0.0, -1.0, 1.0, 0.0, 0.0, -1.0, 1.0, 0.0, 0.0, -1.0, 1.0, 0.0, 0.0, -1.0, 1.0, 0.0, 0.0, -1.0, 1.0, 0.0, 0.0, -1.0, 1.0, 0.0, 0.0, -1.0, 1.0, 0.0, 0.0, -1.0, 1.0, 0.0, 0.0, -1.0, 1.0, 0.0, 0.0, -1.0, 1.0, 0.0, 0.0, -1.0, 1.0, 0.0, 0.0, -1.0, 1.0, 0.0, 0.0, -1.0, 1.0, 0.0, 0.0, -1.0, 1.0, 0.0, 0.0, -1.0, 1.0, 0.0, 0.0, -1.0, 1.0, 0.0, 0.0, -1.0, 1.0, 0.0, 0.0, -1.0, 1.0, 0.0, 0.0, -1.0, 1.0, 0.0, 0.0, -1.0, 1.0, 0.0, 0.0, -1.0, 1.0, 0.0, 0.0, -1.0, 1.0, 0.0, 0.0, -1.0, 1.0, 0.0, 0.0, -1.0, 1.0, 0.0, 0.0, -1.0, 1.0, 0.0, 0.0, -1.0, 1.0, 0.0, 0.0, -1.0, 1.0, 0.0, 0.0, -1.0, 1.0, 0.0, 0.0, -1.0, 1.0, 0.0, 0.0, -1.0, 1.0, 0.0, 0.0, -1.0, 1.0, 0.0, 0.0, -1.0, 1.0, 0.0, 0.0, -1.0, 1.0, 0.0, 0.0, -1.0, 1.0, 0.0, 0.0, -1.0, 1.0, 0.0, 0.0, -1.0, 1.0, 0.0, 0.0, -1.0, 1.0, 0.0, 0.0, -1.0, 1.0, 0.0, 0.0, -1.0, 1.0, 0.0, 0.0, -1.0, 1.0, 0.0, 0.0, -1.0, 1.0, 0.0, 0.0, -1.0, 1.0, 0.0, 0.0, -1.0, 1.0, 0.0, 0.0, -1.0, 1.0, 0.0, 0.0, -1.0, 1.0, 0.0, 0.0, -1.0, 1.0, 0.0, 0.0, -1.0, 1.0, 0.0, 0.0, -1.0, 1.0, 0.0, 0.0, -1.0, 1.0, 0.0, 0.0, -1.0, 1.0, 0.0, 0.0, -1.0, 1.0, 0.0, 0.0, -1.0, 1.0, 0.0, 0.0, -1.0, 1.0, 0.0, 0.0, -1.0, 1.0, 0.0, 0.0, -1.0, 1.0, 0.0, 0.0, -1.0, 1.0, 0.0, 0.0, -1.0, 1.0, 0.0, 0.0, -1.0, 1.0, 0.0, 0.0, -1.0, 1.0, 0.0, 0.0, -1.0, 1.0, 0.0, 0.0, -1.0, 1.0, 0.0, 0.0, -1.0, 1.0, 0.0, 0.0, -1.0, 1.0, 0.0, 0.0, -1.0, 1.0, 0.0, 0.0, -1.0, 1.0, 0.0, 0.0, -1.0, 1.0, 0.0, 0.0, -1.0, 1.0, 0.0, 0.0, -1.0, 1.0, 0.0, 0.0, -1.0, 1.0, 0.0, 0.0, -1.0, 1.0, 0.0, 0.0, -1.0, 1.0, 0.0, 0.0, -1.0, 1.0, 0.0, 0.0, -1.0, 1.0, 0.0, 0.0, -1.0),
		null, ; no Vertex Colors,
		Vector2Array(0.375, 1.0, 0.625, 1.0, 0.625, 1.0, 0.375, 1.0, 0.625, 1.0, 0.375, 1.0, 0.375, 1.0, 0.625, 1.0, 0.625, 1.0, 0.625, 0.75, 0.625, 0.75, 0.625, 1.0, 0.625, 0.75, 0.625, 1.0, 0.625, 1.0, 0.625, 0.75, 0.625, 0.75, 0.375, 0.75, 0.375, 0.75, 0.625, 0.75, 0.375, 0.75, 0.625, 0.75, 0.625, 0.75, 0.375, 0.75, 0.375, 0.75, 0.375, 1.0, 0.375, 1.0, 0.375, 0.75, 0.375, 1.0, 0.375, 0.75, 0.375, 0.75, 0.375, 1.0, 0.375, 0.75, 0.625, 0.75, 0.625, 0.75, 0.375, 0.75, 0.625, 0.75, 0.375, 0.75, 0.375, 0.75, 0.625, 0.75, 0.625, 0.75, 0.625, 0.5, 0.625, 0.5, 0.625, 0.75, 0.625, 0.5, 0.625, 0.75, 0.625, 0.75, 0.625, 0.5, 0.625, 0.5, 0.375, 0.5, 0.375, 0.5, 0.625, 0.5, 0.375, 0.5, 0.625, 0.5, 0.625, 0.5, 0.375, 0.5, 0.375, 0.5, 0.375, 0.75, 0.375, 0.75, 0.375, 0.5, 0.375, 0.75, 0.375, 0.5, 0.375, 0.5, 0.375, 0.75, 0.375, 0.5, 0.625, 0.5, 0.625, 0.5, 0.375, 0.5, 0.625, 0.5, 0.375, 0.5, 0.375, 0.5, 0.625, 0.5, 0.625, 0.5, 0.625, 0.25, 0.625, 0.25, 0.625, 0.5, 0.625, 0.25, 0.625, 0.5, 0.625, 0.5, 0.625, 0.25, 0.625, 0.25, 0.375, 0.25, 0.375, 0.25, 0.625, 0.25, 0.375, 0.25, 0.625, 0.25, 0.625, 0.25, 0.375, 0.25, 0.375, 0.25, 0.375, 0.5, 0.375, 0.5, 0.375, 0.25, 0.375, 0.5, 0.375, 0.25, 0.375, 0.25, 0.375, 0.5, 0.375, 0.25, 0.625, 0.25, 0.625, 0.25, 0.375, 0.25, 0.625, 0.25, 0.375, 0.25, 0.375, 0.25, 0.625, 0.25, 0.625, 0.25, 0.625, 0.0, 0.625, 0.0, 0.625, 0.25, 0.625, 0.0, 0.625, 0.25, 0.625, 0.25, 0.625, 0.0, 0.625, 0.0, 0.375, 0.0, 0.375, 0.0, 0.625, 0.0, 0.375, 0.0, 0.625, 0.0, 0.625, 0.0, 0.375, 0.0, 0.375, 0.0, 0.375, 0.25, 0.375, 0.25, 0.375, 0.0, 0.375, 0.25, 0.375, 0.0, 0.375, 0.0, 0.375, 0.25, 0.125, 0.5, 0.375, 0.5, 0.375, 0.5, 0.125, 0.5, 0.375, 0.5, 0.125, 0.5, 0.125, 0.5, 0.375, 0.5, 0.375, 0.5, 0.375, 0.25, 0.375, 0.25, 0.375, 0.5, 0.375, 0.25, 0.375, 0.5, 0.375, 0.5, 0.375, 0.25, 0.375, 0.25, 0.125, 0.25, 0.125, 0.25, 0.375, 0.25, 0.125, 0.25, 0.375, 0.25, 0.375, 0.25, 0.125, 0.25, 0.125, 0.25, 0.125, 0.5, 0.125, 0.5, 0.125, 0.25, 0.125, 0.5, 0.125, 0.25, 0.125, 0.25, 0.125, 0.5, 0.625, 0.5, 0.875, 0.5, 0.875, 0.5, 0.625, 0.5, 0.875, 0.5, 0.625, 0.5, 0.625, 0.5, 0.875, 0.5, 0.875, 0.5, 0.875, 0.25, 0.875, 0.25, 0.875, 0.5, 0.875, 0.25, 0.875, 0.5, 0.875, 0.5, 0.875, 0.25, 0.875, 0.25, 0.625, 0.25, 0.625, 0.25, 0.875, 0.25, 0.625, 0.25, 0.875, 0.25, 0.875, 0.25, 0.625, 0.25, 0.625, 0.25, 0.625, 0.5, 0.625, 0.5, 0.625, 0.25, 0.625, 0.5, 0.625, 0.25, 0.625, 0.25, 0.625, 0.5),
		null, ; No UV2,
		null, ; No Bones,
		null, ; No Weights,
		IntArray(0, 2, 1, 0, 3, 2, 4, 6, 5, 4, 7, 6, 8, 10, 9, 8, 11, 10, 12, 14, 13, 12, 15, 14, 16, 18, 17, 16, 19, 18, 20, 22, 21, 20, 23, 22, 24, 26, 25, 24, 27, 26, 28, 30, 29, 28, 31, 30, 32, 34, 33, 32, 35, 34, 36, 38, 37, 36, 39, 38, 40, 42, 41, 40, 43, 42, 44, 46, 45, 44, 47, 46, 48, 50, 49, 48, 51, 50, 52, 54, 53, 52, 55, 54, 56, 58, 57, 56, 59, 58, 60, 62, 61, 60, 63, 62, 64, 66, 65, 64, 67, 66, 68, 70, 69, 68, 71, 70, 72, 74, 73, 72, 75, 74, 76, 78, 77, 76, 79, 78, 80, 82, 81, 80, 83, 82, 84, 86, 85, 84, 87, 86, 88, 90, 89, 88, 91, 90, 92, 94, 93, 92, 95, 94, 96, 98, 97, 96, 99, 98, 100, 102, 101, 100, 103, 102, 104, 106, 105, 104, 107, 106, 108, 110, 109, 108, 111, 110, 112, 114, 113, 112, 115, 114, 116, 118, 117, 116, 119, 118, 120, 122, 121, 120, 123, 122, 124, 126, 125, 124, 127, 126, 128, 130, 129, 128, 131, 130, 132, 134, 133, 132, 135, 134, 136, 138, 137, 136, 139, 138, 140, 142, 141, 140, 143, 142, 144, 146, 145, 144, 147, 146, 148, 150, 149, 148, 151, 150, 152, 154, 153, 152, 155, 154, 156, 158, 157, 156, 159, 158, 160, 162, 161, 160, 163, 162, 164, 166, 165, 164, 167, 166, 168, 170, 169, 168, 171, 170, 172, 174, 173, 172, 175, 174, 176, 178, 177, 176, 179, 178, 180, 182, 181, 180, 183, 182, 184, 186, 185, 184, 187, 186, 188, 190, 189, 188, 191, 190)
	],
	"morph_arrays":[]
}

[sub_resource id=3 type="ConvexPolygonShape"]

resource_name = "Cube001"
points = PoolVector3Array(-1.2, -1.05, 1.6, -1.08, -0.25, 3.0, -1.2, 2.15, 1.6, -1.08, 2.15, 3.0, 1.2, -1.05, 1.6, 1.08, -0.25, 3.0, 1.2, 2.15, 1.6, 1.08, 2.15, 3.0)

[sub_resource id=4 type="ArrayMesh"]

resource_name = "Cube001"
surfaces/0 = {
	"material":ExtResource(1),
	"primitive":4,
	"arrays":[
		Vector3Array(-1.2, 1.6, 1.05, -1.08, 3.0, 0.25, -1.08, 3.0, -2.15, -1.2, 1.6, -2.15, -1.2, 1.6, -2.15, -1.08, 3.0, -2.15, 1.08, 3.0, -2.15, 1.2, 1.6, -2.15, 1.2, 1.6, -2.15, 1.08, 3.0, -2.15, 1.08, 3.0, 0.25, 1.2, 1.6, 1.05, 1.2, 1.6, 1.05, 1.08, 3.0, 0.25, -1.08, 3.0, 0.25, -1.2, 1.6, 1.05, -1.2, 1.6, -2.15, 1.2, 1.6, -2.15, 1.2, 1.6, 1.05, -1.2, 1.6, 1.05, 1.08, 3.0, -2.15, -1.08, 3.0, -2.15, -1.08, 3.0, 0.25, 1.08, 3.0, 0.25),
		Vector3Array(-0.996347, 0.0854011, 0.0, -0.996347, 0.0854011, 0.0, -0.996347, 0.0854011, 0.0, -0.996347, 0.0854011, 0.0, 0.0, -3.73463e-08, -1.0, 0.0, -3.73463e-08, -1.0, 0.0, -3.73463e-08, -1.0, 0.0, -3.73463e-08, -1.0, 0.996347, 0.0854011, 0.0, 0.996347, 0.0854011, 0.0, 0.996347, 0.0854011, 0.0, 0.996347, 0.0854011, 0.0, 0.0, 0.496139, 0.868243, 0.0, 0.496139, 0.868243, 0.0, 0.496139, 0.868243, 0.0, 0.496139, 0.868243, 0.0, -1.0, 0.0, 0.0, -1.0, 0.0, 0.0, -1.0, 0.0, 0.0, -1.0, 0.0, 0.0, 1.0, 0.0, 0.0, 1.0, 0.0, 0.0, 1.0, 0.0, 0.0, 1.0, 0.0),
		FloatArray(0.0742156, 0.865849, -0.494771, 1.0, 0.0790371, 0.9221, -0.378794, 1.0, 0.0854012, 0.996347, 0.0, 1.0, 0.0841292, 0.981508, -0.171945, 1.0, 0.0221513, 0.999755, -3.73371e-08, 1.0, 0.0854011, 0.996347, -3.72098e-08, 1.0, -0.028707, 0.999588, -3.73309e-08, 1.0, -0.0854011, 0.996347, -3.72098e-08, 1.0, -0.0841292, 0.981508, -0.171945, 1.0, -0.0854012, 0.996347, 0.0, 1.0, -0.0790371, 0.9221, -0.378794, 1.0, -0.0742156, 0.865849, -0.494771, 1.0, -0.0131975, 0.868167, -0.496096, 1.0, -0.0742156, 0.865849, -0.494771, 1.0, 0.0187243, 0.868091, -0.496052, 1.0, 0.0742155, 0.865849, -0.494771, 1.0, 1.0, 0.0, 0.0, 1.0, 1.0, 0.0, 0.0, 1.0, 1.0, 0.0, 0.0, 1.0, 1.0, 0.0, 0.0, 1.0, -1.0, 0.0, 0.0, 1.0, -1.0, 0.0, 0.0, 1.0, -1.0, 0.0, 0.0, 1.0, -1.0, 0.0, 0.0, 1.0),
		null, ; no Vertex Colors,
		Vector2Array(0.375, 1.0, 0.625, 1.0, 0.625, 0.75, 0.375, 0.75, 0.375, 0.75, 0.625, 0.75, 0.625, 0.5, 0.375, 0.5, 0.375, 0.5, 0.625, 0.5, 0.625, 0.25, 0.375, 0.25, 0.375, 0.25, 0.625, 0.25, 0.625, 0.0, 0.375, 0.0, 0.125, 0.5, 0.375, 0.5, 0.375, 0.25, 0.125, 0.25, 0.625, 0.5, 0.875, 0.5, 0.875, 0.25, 0.625, 0.25),
		null, ; No UV2,
		null, ; No Bones,
		null, ; No Weights,
		IntArray(0, 2, 1, 0, 3, 2, 4, 6, 5, 4, 7, 6, 8, 10, 9, 8, 11, 10, 12, 14, 13, 12, 15, 14, 16, 18, 17, 16, 19, 18, 20, 22, 21, 20, 23, 22)
	],
	"morph_arrays":[]
}

[sub_resource id=5 type="ArrayMesh"]

resource_name = "Cube001"
surfaces/0 = {
	"material":ExtResource(2),
	"primitive":4,
	"arrays":[
		Vector3Array(-1.19573, 1.64982, 0.963997, -1.08427, 2.95018, 0.220931, -1.05109, 2.96436, 0.230155, -1.17127, 1.62022, 1.01442, -1.08427, 2.95018, 0.220931, -1.19573, 1.64982, 0.963997, -1.22873, 1.57978, 1.08558, -1.10891, 3.03564, 0.269845, -1.08427, 2.95018, 0.220931, -1.08427, 2.95018, -2.1, -1.0525, 2.97005, -2.1209, -1.05109, 2.96436, 0.230155, -1.08427, 2.95018, -2.1, -1.08427, 2.95018, 0.220931, -1.10891, 3.03564, 0.269845, -1.1075, 3.02995, -2.1791, -1.08427, 2.95018, -2.1, -1.19573, 1.64982, -2.1, -1.16981, 1.62771, -2.12135, -1.0525, 2.97005, -2.1209, -1.19573, 1.64982, -2.1, -1.08427, 2.95018, -2.1, -1.1075, 3.02995, -2.1791, -1.23019, 1.57229, -2.17865, -1.19573, 1.64982, -2.1, -1.19573, 1.64982, 0.963997, -1.17127, 1.62022, 1.01442, -1.16981, 1.62771, -2.12135, -1.19573, 1.64982, 0.963997, -1.19573, 1.64982, -2.1, -1.23019, 1.57229, -2.17865, -1.22873, 1.57978, 1.08558, -1.14553, 1.65, -2.15, -1.0341, 2.95, -2.15, -1.0525, 2.97005, -2.1209, -1.16981, 1.62771, -2.12135, -1.0341, 2.95, -2.15, -1.14553, 1.65, -2.15, -1.23019, 1.57229, -2.17865, -1.1075, 3.02995, -2.1791, -1.0341, 2.95, -2.15, 1.0341, 2.95, -2.15, 1.0525, 2.97005, -2.1209, -1.0525, 2.97005, -2.1209, 1.0341, 2.95, -2.15, -1.0341, 2.95, -2.15, -1.1075, 3.02995, -2.1791, 1.1075, 3.02995, -2.1791, 1.0341, 2.95, -2.15, 1.14553, 1.65, -2.15, 1.16981, 1.62771, -2.12135, 1.0525, 2.97005, -2.1209, 1.14553, 1.65, -2.15, 1.0341, 2.95, -2.15, 1.1075, 3.02995, -2.1791, 1.23019, 1.57229, -2.17865, 1.14553, 1.65, -2.15, -1.14553, 1.65, -2.15, -1.16981, 1.62771, -2.12135, 1.16981, 1.62771, -2.12135, -1.14553, 1.65, -2.15, 1.14553, 1.65, -2.15, 1.23019, 1.57229, -2.17865, -1.23019, 1.57229, -2.17865, 1.19573, 1.64982, -2.1, 1.08427, 2.95018, -2.1, 1.0525, 2.97005, -2.1209, 1.16981, 1.62771, -2.12135, 1.08427, 2.95018, -2.1, 1.19573, 1.64982, -2.1, 1.23019, 1.57229, -2.17865, 1.1075, 3.02995, -2.1791, 1.08427, 2.95018, -2.1, 1.08427, 2.95018, 0.220931, 1.05109, 2.96436, 0.230155, 1.0525, 2.97005, -2.1209, 1.08427, 2.95018, 0.220931, 1.08427, 2.95018, -2.1, 1.1075, 3.02995, -2.1791, 1.10891, 3.03564, 0.269845, 1.08427, 2.95018, 0.220931, 1.19573, 1.64982, 0.963997, 1.17127, 1.62022, 1.01442, 1.05109, 2.96436, 0.230155, 1.19573, 1.64982, 0.963997, 1.08427, 2.95018, 0.220931, 1.10891, 3.03564, 0.269845, 1.22873, 1.57978, 1.08558, 1.19573, 1.64982, 0.963997, 1.19573, 1.64982, -2.1, 1.16981, 1.62771, -2.12135, 1.17127, 1.62022, 1.01442, 1.19573, 1.64982, -2.1, 1.19573, 1.64982, 0.963997, 1.22873, 1.57978, 1.08558, 1.23019, 1.57229, -2.17865, 1.14614, 1.64341, 1.02519, 1.03358, 2.95659, 0.274807, 1.05109, 2.96436, 0.230155, 1.17127, 1.62022, 1.01442, 1.03358, 2.95659, 0.274807, 1.14614, 1.64341, 1.02519, 1.22873, 1.57978, 1.08558, 1.10891, 3.03564, 0.269845, 1.03358, 2.95659, 0.274807, -1.03358, 2.95659, 0.274807, -1.05109, 2.96436, 0.230155, 1.05109, 2.96436, 0.230155, -1.03358, 2.95659, 0.274807, 1.03358, 2.95659, 0.274807, 1.10891, 3.03564, 0.269845, -1.10891, 3.03564, 0.269845, -1.03358, 2.95659, 0.274807, -1.14614, 1.64341, 1.02519, -1.17127, 1.62022, 1.01442, -1.05109, 2.96436, 0.230155, -1.14614, 1.64341, 1.02519, -1.03358, 2.95659, 0.274807, -1.10891, 3.03564, 0.269845, -1.22873, 1.57978, 1.08558, -1.14614, 1.64341, 1.02519, 1.14614, 1.64341, 1.02519, 1.17127, 1.62022, 1.01442, -1.17127, 1.62022, 1.01442, 1.14614, 1.64341, 1.02519, -1.14614, 1.64341, 1.02519, -1.22873, 1.57978, 1.08558, 1.22873, 1.57978, 1.08558, -1.15, 1.6, -2.1, 1.15, 1.6, -2.1, 1.16981, 1.62771, -2.12135, -1.16981, 1.62771, -2.12135, 1.15, 1.6, -2.1, -1.15, 1.6, -2.1, -1.23019, 1.57229, -2.17865, 1.23019, 1.57229, -2.17865, 1.15, 1.6, -2.1, 1.15, 1.6, 1.0, 1.17127, 1.62022, 1.01442, 1.16981, 1.62771, -2.12135, 1.15, 1.6, 1.0, 1.15, 1.6, -2.1, 1.23019, 1.57229, -2.17865, 1.22873, 1.57978, 1.08558, 1.15, 1.6, 1.0, -1.15, 1.6, 1.0, -1.17127, 1.62022, 1.01442, 1.17127, 1.62022, 1.01442, -1.15, 1.6, 1.0, 1.15, 1.6, 1.0, 1.22873, 1.57978, 1.08558, -1.22873, 1.57978, 1.08558, -1.15, 1.6, 1.0, -1.15, 1.6, -2.1, -1.16981, 1.62771, -2.12135, -1.17127, 1.62022, 1.01442, -1.15, 1.6, -2.1, -1.15, 1.6, 1.0, -1.22873, 1.57978, 1.08558, -1.23019, 1.57229, -2.17865, 1.03, 3.0, -2.1, -1.03, 3.0, -2.1, -1.0525, 2.97005, -2.1209, 1.0525, 2.97005, -2.1209, -1.03, 3.0, -2.1, 1.03, 3.0, -2.1, 1.1075, 3.02995, -2.1791, -1.1075, 3.02995, -2.1791, -1.03, 3.0, -2.1, -1.03, 3.0, 0.2, -1.05109, 2.96436, 0.230155, -1.0525, 2.97005, -2.1209, -1.03, 3.0, 0.2, -1.03, 3.0, -2.1, -1.1075, 3.02995, -2.1791, -1.10891, 3.03564, 0.269845, -1.03, 3.0, 0.2, 1.03, 3.0, 0.2, 1.05109, 2.96436, 0.230155, -1.05109, 2.96436, 0.230155, 1.03, 3.0, 0.2, -1.03, 3.0, 0.2, -1.10891, 3.03564, 0.269845, 1.10891, 3.03564, 0.269845, 1.03, 3.0, 0.2, 1.03, 3.0, -2.1, 1.0525, 2.97005, -2.1209, 1.05109, 2.96436, 0.230155, 1.03, 3.0, -2.1, 1.03, 3.0, 0.2, 1.10891, 3.03564, 0.269845, 1.1075, 3.02995, -2.1791),
		Vector3Array(0.584436, -0.443604, -0.679448, 0.584436, -0.443604, -0.679448, 0.584436, -0.443604, -0.679448, 0.584436, -0.443604, -0.679448, -0.94552, -0.0965079, -0.31093, -0.94552, -0.0965079, -0.31093, -0.94552, -0.0965079, -0.31093, -0.94552, -0.0965079, -0.31093, 0.464056, -0.885805, -0.00121922, 0.464056, -0.885805, -0.00121922, 0.464056, -0.885805, -0.00121922, 0.464056, -0.885805, -0.00121922, -0.960513, -0.278235, 4.74182e-05, -0.960513, -0.278235, 4.74182e-05, -0.960513, -0.278235, 4.74182e-05, -0.960513, -0.278235, 4.74182e-05, 0.588861, -0.0511128, 0.806617, 0.588861, -0.0511128, 0.806617, 0.588861, -0.0511128, 0.806617, 0.588861, -0.0511128, 0.806617, -0.935841, 0.0795069, 0.343336, -0.935841, 0.0795069, 0.343336, -0.935841, 0.0795069, 0.343336, -0.935841, 0.0795069, 0.343336, 0.715959, 0.698142, 0.00101196, 0.715959, 0.698142, 0.00101196, 0.715959, 0.698142, 0.00101196, 0.715959, 0.698142, 0.00101196, -0.9095, 0.415703, -0.000283093, -0.9095, 0.415703, -0.000283093, -0.9095, 0.415703, -0.000283093, -0.9095, 0.415703, -0.000283093, 0.803505, -0.0696561, 0.591209, 0.803505, -0.0696561, 0.591209, 0.803505, -0.0696561, 0.591209, 0.803505, -0.0696561, 0.591209, 0.342671, -0.0292446, -0.939, 0.342671, -0.0292446, -0.939, 0.342671, -0.0292446, -0.939, 0.342671, -0.0292446, -0.939, 0.0, -0.823474, 0.567353, 0.0, -0.823474, 0.567353, 0.0, -0.823474, 0.567353, 0.0, -0.823474, 0.567353, 0.0, -0.341998, -0.939701, 0.0, -0.341998, -0.939701, 0.0, -0.341998, -0.939701, 0.0, -0.341998, -0.939701, -0.803505, -0.0696561, 0.591209, -0.803505, -0.0696561, 0.591209, -0.803505, -0.0696561, 0.591209, -0.803505, -0.0696561, 0.591209, -0.342671, -0.0292444, -0.939, -0.342671, -0.0292444, -0.939, -0.342671, -0.0292444, -0.939, -0.342671, -0.0292444, -0.939, 0.0, 0.789266, 0.614051, 0.0, 0.789266, 0.614051, 0.0, 0.789266, 0.614051, 0.0, 0.789266, 0.614051, 0.0, 0.345908, -0.938268, 0.0, 0.345908, -0.938268, 0.0, 0.345908, -0.938268, 0.0, 0.345908, -0.938268, -0.588861, -0.0511122, 0.806617, -0.588861, -0.0511122, 0.806617, -0.588861, -0.0511122, 0.806617, -0.588861, -0.0511122, 0.806617, 0.935841, 0.0795071, 0.343336, 0.935841, 0.0795071, 0.343336, 0.935841, 0.0795071, 0.343336, 0.935841, 0.0795071, 0.343336, -0.464056, -0.885805, -0.00121922, -0.464056, -0.885805, -0.00121922, -0.464056, -0.885805, -0.00121922, -0.464056, -0.885805, -0.00121922, 0.960513, -0.278235, 4.74182e-05, 0.960513, -0.278235, 4.74182e-05, 0.960513, -0.278235, 4.74182e-05, 0.960513, -0.278235, 4.74182e-05, -0.584436, -0.443604, -0.679448, -0.584436, -0.443604, -0.679448, -0.584436, -0.443604, -0.679448, -0.584436, -0.443604, -0.679448, 0.94552, -0.0965079, -0.31093, 0.94552, -0.0965079, -0.31093, 0.94552, -0.0965079, -0.31093, 0.94552, -0.0965079, -0.31093, -0.715959, 0.698142, 0.00101196, -0.715959, 0.698142, 0.00101196, -0.715959, 0.698142, 0.00101196, -0.715959, 0.698142, 0.00101196, 0.9095, 0.415703, -0.000283093, 0.9095, 0.415703, -0.000283093, 0.9095, 0.415703, -0.000283093, 0.9095, 0.415703, -0.000283093, -0.785223, -0.359811, -0.503945, -0.785223, -0.359811, -0.503945, -0.785223, -0.359811, -0.503945, -0.785223, -0.359811, -0.503945, -0.335149, 0.44236, 0.831861, -0.335149, 0.44236, 0.831861, -0.335149, 0.44236, 0.831861, -0.335149, 0.44236, 0.831861, 0.0, -0.985197, -0.171429, 0.0, -0.985197, -0.171429, 0.0, -0.985197, -0.171429, 0.0, -0.985197, -0.171429, 0.0, 0.062647, 0.998036, 0.0, 0.062647, 0.998036, 0.0, 0.062647, 0.998036, 0.0, 0.062647, 0.998036, 0.785223, -0.359811, -0.503945, 0.785223, -0.359811, -0.503945, 0.785223, -0.359811, -0.503945, 0.785223, -0.359811, -0.503945, 0.335149, 0.44236, 0.831861, 0.335149, 0.44236, 0.831861, 0.335149, 0.44236, 0.831861, 0.335149, 0.44236, 0.831861, 0.0, 0.421088, -0.90702, 0.0, 0.421088, -0.90702, 0.0, 0.421088, -0.90702, 0.0, 0.421088, -0.90702, 0.0, 0.688357, 0.725372, 0.0, 0.688357, 0.725372, 0.0, 0.688357, 0.725372, 0.0, 0.688357, 0.725372, 0.0, 0.61033, 0.792148, 0.0, 0.61033, 0.792148, 0.0, 0.61033, 0.792148, 0.0, 0.61033, 0.792148, 0.0, -0.94317, 0.332311, 0.0, -0.94317, 0.332311, 0.0, -0.94317, 0.332311, 0.0, -0.94317, 0.332311, -0.759188, 0.65087, 0.000959429, -0.759188, 0.65087, 0.000959429, -0.759188, 0.65087, 0.000959429, -0.759188, 0.65087, 0.000959429, -0.288781, -0.957395, 0.00106127, -0.288781, -0.957395, 0.00106127, -0.288781, -0.957395, 0.00106127, -0.288781, -0.957395, 0.00106127, 0.0, 0.580808, -0.81404, 0.0, 0.580808, -0.81404, 0.0, 0.580808, -0.81404, 0.0, 0.580808, -0.81404, 0.0, -0.97321, -0.229918, 0.0, -0.97321, -0.229918, 0.0, -0.97321, -0.229918, 0.0, -0.97321, -0.229918, 0.759188, 0.65087, 0.000959429, 0.759188, 0.65087, 0.000959429, 0.759188, 0.65087, 0.000959429, 0.759188, 0.65087, 0.000959429, 0.288781, -0.957395, 0.00106127, 0.288781, -0.957395, 0.00106127, 0.288781, -0.957395, 0.00106127, 0.288781, -0.957395, 0.00106127, 0.0, -0.572275, 0.820062, 0.0, -0.572275, 0.820062, 0.0, -0.572275, 0.820062, 0.0, -0.572275, 0.820062, 0.0, 0.935195, 0.354134, 0.0, 0.935195, 0.354134, 0.0, 0.935195, 0.354134, 0.0, 0.935195, 0.354134, 0.832777, -0.553608, -0.000930315, 0.832777, -0.553608, -0.000930315, 0.832777, -0.553608, -0.000930315, 0.832777, -0.553608, -0.000930315, 0.386807, 0.92216, -0.000989877, 0.386807, 0.92216, -0.000989877, 0.386807, 0.92216, -0.000989877, 0.386807, 0.92216, -0.000989877, 0.0, -0.645895, -0.763426, 0.0, -0.645895, -0.763426, 0.0, -0.645895, -0.763426, 0.0, -0.645895, -0.763426, 0.0, 0.890723, -0.454547, 0.0, 0.890723, -0.454547, 0.0, 0.890723, -0.454547, 0.0, 0.890723, -0.454547, -0.832777, -0.553608, -0.000930315, -0.832777, -0.553608, -0.000930315, -0.832777, -0.553608, -0.000930315, -0.832777, -0.553608, -0.000930315, -0.386807, 0.92216, -0.000989877, -0.386807, 0.92216, -0.000989877, -0.386807, 0.92216, -0.000989877, -0.386807, 0.92216, -0.000989877),
		FloatArray(1.0, 0.0, 0.0, -1.0, 1.0, 0.0, 0.0, -1.0, 1.0, 0.0, 0.0, -1.0, 1.0, 0.0, 0.0, -1.0, 1.0, 0.0, 0.0, -1.0, 1.0, 0.0, 0.0, -1.0, 1.0, 0.0, 0.0, -1.0, 1.0, 0.0, 0.0, -1.0, 1.0, 0.0, 0.0, -1.0, 1.0, 0.0, 0.0, -1.0, 1.0, 0.0, 0.0, -1.0, 1.0, 0.0, 0.0, -1.0, 1.0, 0.0, 0.0, -1.0, 1.0, 0.0, 0.0, -1.0, 1.0, 0.0, 0.0, -1.0, 1.0, 0.0, 0.0, -1.0, 1.0, 0.0, 0.0, -1.0, 1.0, 0.0, 0.0, -1.0, 1.0, 0.0, 0.0, -1.0, 1.0, 0.0, 0.0, -1.0, 1.0, 0.0, 0.0, -1.0, 1.0, 0.0, 0.0, -1.0, 1.0, 0.0, 0.0, -1.0, 1.0, 0.0, 0.0, -1.0, 1.0, 0.0, 0.0, -1.0, 1.0, 0.0, 0.0, -1.0, 1.0, 0.0, 0.0, -1.0, 1.0, 0.0, 0.0, -1.0, 1.0, 0.0, 0.0, -1.0, 1.0, 0.0, 0.0, -1.0, 1.0, 0.0, 0.0, -1.0, 1.0, 0.0, 0.0, -1.0, 1.0, 0.0, 0.0, -1.0, 1.0, 0.0, 0.0, -1.0, 1.0, 0.0, 0.0, -1.0, 1.0, 0.0, 0.0, -1.0, 1.0, 0.0, 0.0, -1.0, 1.0, 0.0, 0.0, -1.0, 1.0, 0.0, 0.0, -1.0, 1.0, 0.0, 0.0, -1.0, 1.0, 0.0, 0.0, -1.0, 1.0, 0.0, 0.0, -1.0, 1.0, 0.0, 0.0, -1.0, 1.0, 0.0, 0.0, -1.0, 1.0, 0.0, 0.0, -1.0, 1.0, 0.0, 0.0, -1.0, 1.0, 0.0, 0.0, -1.0, 1.0, 0.0, 0.0, -1.0, 1.0, 0.0, 0.0, -1.0, 1.0, 0.0, 0.0, -1.0, 1.0, 0.0, 0.0, -1.0, 1.0, 0.0, 0.0, -1.0, 1.0, 0.0, 0.0, -1.0, 1.0, 0.0, 0.0, -1.0, 1.0, 0.0, 0.0, -1.0, 1.0, 0.0, 0.0, -1.0, 1.0, 0.0, 0.0, -1.0, 1.0, 0.0, 0.0, -1.0, 1.0, 0.0, 0.0, -1.0, 1.0, 0.0, 0.0, -1.0, 1.0, 0.0, 0.0, -1.0, 1.0, 0.0, 0.0, -1.0, 1.0, 0.0, 0.0, -1.0, 1.0, 0.0, 0.0, -1.0, 1.0, 0.0, 0.0, -1.0, 1.0, 0.0, 0.0, -1.0, 1.0, 0.0, 0.0, -1.0, 1.0, 0.0, 0.0, -1.0, 1.0, 0.0, 0.0, -1.0, 1.0, 0.0, 0.0, -1.0, 1.0, 0.0, 0.0, -1.0, 1.0, 0.0, 0.0, -1.0, 1.0, 0.0, 0.0, -1.0, 1.0, 0.0, 0.0, -1.0, 1.0, 0.0, 0.0, -1.0, 1.0, 0.0, 0.0, -1.0, 1.0, 0.0, 0.0, -1.0, 1.0, 0.0, 0.0, -1.0, 1.0, 0.0, 0.0, -1.0, 1.0, 0.0, 0.0, -1.0, 1.0, 0.0, 0.0, -1.0, 1.0, 0.0, 0.0, -1.0, 1.0, 0.0, 0.0, -1.0, 1.0, 0.0, 0.0, -1.0, 1.0, 0.0, 0.0, -1.0, 1.0, 0.0, 0.0, -1.0, 1.0, 0.0, 0.0, -1.0, 1.0, 0.0, 0.0, -1.0, 1.0, 0.0, 0.0, -1.0, 1.0, 0.0, 0.0, -1.0, 1.0, 0.0, 0.0, -1.0, 1.0, 0.0, 0.0, -1.0, 1.0, 0.0, 0.0, -1.0, 1.0, 0.0, 0.0, -1.0, 1.0, 0.0, 0.0, -1.0, 1.0, 0.0, 0.0, -1.0, 1.0, 0.0, 0.0, -1.0, 1.0, 0.0, 0.0, -1.0, 1.0, 0.0, 0.0, -1.0, 1.0, 0.0, 0.0, -1.0, 1.0, 0.0, 0.0, -1.0, 1.0, 0.0, 0.0, -1.0, 1.0, 0.0, 0.0, -1.0, 1.0, 0.0, 0.0, -1.0, 1.0, 0.0, 0.0, -1.0, 1.0, 0.0, 0.0, -1.0, 1.0, 0.0, 0.0, -1.0, 1.0, 0.0, 0.0, -1.0, 1.0, 0.0, 0.0, -1.0, 1.0, 0.0, 0.0, -1.0, 1.0, 0.0, 0.0, -1.0, 1.0, 0.0, 0.0, -1.0, 1.0, 0.0, 0.0, -1.0, 1.0, 0.0, 0.0, -1.0, 1.0, 0.0, 0.0, -1.0, 1.0, 0.0, 0.0, -1.0, 1.0, 0.0, 0.0, -1.0, 1.0, 0.0, 0.0, -1.0, 1.0, 0.0, 0.0, -1.0, 1.0, 0.0, 0.0, -1.0, 1.0, 0.0, 0.0, -1.0, 1.0, 0.0, 0.0, -1.0, 1.0, 0.0, 0.0, -1.0, 1.0, 0.0, 0.0, -1.0, 1.0, 0.0, 0.0, -1.0, 1.0, 0.0, 0.0, -1.0, 1.0, 0.0, 0.0, -1.0, 1.0, 0.0, 0.0, -1.0, 1.0, 0.0, 0.0, -1.0, 1.0, 0.0, 0.0, -1.0, 1.0, 0.0, 0.0, -1.0, 1.0, 0.0, 0.0, -1.0, 1.0, 0.0, 0.0, -1.0, 1.0, 0.0, 0.0, -1.0, 1.0, 0.0, 0.0, -1.0, 1.0, 0.0, 0.0, -1.0, 1.0, 0.0, 0.0, -1.0, 1.0, 0.0, 0.0, -1.0, 1.0, 0.0, 0.0, -1.0, 1.0, 0.0, 0.0, -1.0, 1.0, 0.0, 0.0, -1.0, 1.0, 0.0, 0.0, -1.0, 1.0, 0.0, 0.0, -1.0, 1.0, 0.0, 0.0, -1.0, 1.0, 0.0, 0.0, -1.0, 1.0, 0.0, 0.0, -1.0, 1.0, 0.0, 0.0, -1.0, 1.0, 0.0, 0.0, -1.0, 1.0, 0.0, 0.0, -1.0, 1.0, 0.0, 0.0, -1.0, 1.0, 0.0, 0.0, -1.0, 1.0, 0.0, 0.0, -1.0, 1.0, 0.0, 0.0, -1.0, 1.0, 0.0, 0.0, -1.0, 1.0, 0.0, 0.0, -1.0, 1.0, 0.0, 0.0, -1.0, 1.0, 0.0, 0.0, -1.0, 1.0, 0.0, 0.0, -1.0, 1.0, 0.0, 0.0, -1.0, 1.0, 0.0, 0.0, -1.0, 1.0, 0.0, 0.0, -1.0, 1.0, 0.0, 0.0, -1.0, 1.0, 0.0, 0.0, -1.0, 1.0, 0.0, 0.0, -1.0, 1.0, 0.0, 0.0, -1.0, 1.0, 0.0, 0.0, -1.0, 1.0, 0.0, 0.0, -1.0, 1.0, 0.0, 0.0, -1.0, 1.0, 0.0, 0.0, -1.0, 1.0, 0.0, 0.0, -1.0, 1.0, 0.0, 0.0, -1.0, 1.0, 0.0, 0.0, -1.0, 1.0, 0.0, 0.0, -1.0, 1.0, 0.0, 0.0, -1.0, 1.0, 0.0, 0.0, -1.0, 1.0, 0.0, 0.0, -1.0, 1.0, 0.0, 0.0, -1.0, 1.0, 0.0, 0.0, -1.0, 1.0, 0.0, 0.0, -1.0, 1.0, 0.0, 0.0, -1.0, 1.0, 0.0, 0.0, -1.0, 1.0, 0.0, 0.0, -1.0, 1.0, 0.0, 0.0, -1.0, 1.0, 0.0, 0.0, -1.0, 1.0, 0.0, 0.0, -1.0, 1.0, 0.0, 0.0, -1.0, 1.0, 0.0, 0.0, -1.0, 1.0, 0.0, 0.0, -1.0, 1.0, 0.0, 0.0, -1.0, 1.0, 0.0, 0.0, -1.0, 1.0, 0.0, 0.0, -1.0, 1.0, 0.0, 0.0, -1.0),
		null, ; no Vertex Colors,
		Vector2Array(0.375, 1.0, 0.625, 1.0, 0.625, 1.0, 0.375, 1.0, 0.625, 1.0, 0.375, 1.0, 0.375, 1.0, 0.625, 1.0, 0.625, 1.0, 0.625, 0.75, 0.625, 0.75, 0.625, 1.0, 0.625, 0.75, 0.625, 1.0, 0.625, 1.0, 0.625, 0.75, 0.625, 0.75, 0.375, 0.75, 0.375, 0.75, 0.625, 0.75, 0.375, 0.75, 0.625, 0.75, 0.625, 0.75, 0.375, 0.75, 0.375, 0.75, 0.375, 1.0, 0.375, 1.0, 0.375, 0.75, 0.375, 1.0, 0.375, 0.75, 0.375, 0.75, 0.375, 1.0, 0.375, 0.75, 0.625, 0.75, 0.625, 0.75, 0.375, 0.75, 0.625, 0.75, 0.375, 0.75, 0.375, 0.75, 0.625, 0.75, 0.625, 0.75, 0.625, 0.5, 0.625, 0.5, 0.625, 0.75, 0.625, 0.5, 0.625, 0.75, 0.625, 0.75, 0.625, 0.5, 0.625, 0.5, 0.375, 0.5, 0.375, 0.5, 0.625, 0.5, 0.375, 0.5, 0.625, 0.5, 0.625, 0.5, 0.375, 0.5, 0.375, 0.5, 0.375, 0.75, 0.375, 0.75, 0.375, 0.5, 0.375, 0.75, 0.375, 0.5, 0.375, 0.5, 0.375, 0.75, 0.375, 0.5, 0.625, 0.5, 0.625, 0.5, 0.375, 0.5, 0.625, 0.5, 0.375, 0.5, 0.375, 0.5, 0.625, 0.5, 0.625, 0.5, 0.625, 0.25, 0.625, 0.25, 0.625, 0.5, 0.625, 0.25, 0.625, 0.5, 0.625, 0.5, 0.625, 0.25, 0.625, 0.25, 0.375, 0.25, 0.375, 0.25, 0.625, 0.25, 0.375, 0.25, 0.625, 0.25, 0.625, 0.25, 0.375, 0.25, 0.375, 0.25, 0.375, 0.5, 0.375, 0.5, 0.375, 0.25, 0.375, 0.5, 0.375, 0.25, 0.375, 0.25, 0.375, 0.5, 0.375, 0.25, 0.625, 0.25, 0.625, 0.25, 0.375, 0.25, 0.625, 0.25, 0.375, 0.25, 0.375, 0.25, 0.625, 0.25, 0.625, 0.25, 0.625, 0.0, 0.625, 0.0, 0.625, 0.25, 0.625, 0.0, 0.625, 0.25, 0.625, 0.25, 0.625, 0.0, 0.625, 0.0, 0.375, 0.0, 0.375, 0.0, 0.625, 0.0, 0.375, 0.0, 0.625, 0.0, 0.625, 0.0, 0.375, 0.0, 0.375, 0.0, 0.375, 0.25, 0.375, 0.25, 0.375, 0.0, 0.375, 0.25, 0.375, 0.0, 0.375, 0.0, 0.375, 0.25, 0.125, 0.5, 0.375, 0.5, 0.375, 0.5, 0.125, 0.5, 0.375, 0.5, 0.125, 0.5, 0.125, 0.5, 0.375, 0.5, 0.375, 0.5, 0.375, 0.25, 0.375, 0.25, 0.375, 0.5, 0.375, 0.25, 0.375, 0.5, 0.375, 0.5, 0.375, 0.25, 0.375, 0.25, 0.125, 0.25, 0.125, 0.25, 0.375, 0.25, 0.125, 0.25, 0.375, 0.25, 0.375, 0.25, 0.125, 0.25, 0.125, 0.25, 0.125, 0.5, 0.125, 0.5, 0.125, 0.25, 0.125, 0.5, 0.125, 0.25, 0.125, 0.25, 0.125, 0.5, 0.625, 0.5, 0.875, 0.5, 0.875, 0.5, 0.625, 0.5, 0.875, 0.5, 0.625, 0.5, 0.625, 0.5, 0.875, 0.5, 0.875, 0.5, 0.875, 0.25, 0.875, 0.25, 0.875, 0.5, 0.875, 0.25, 0.875, 0.5, 0.875, 0.5, 0.875, 0.25, 0.875, 0.25, 0.625, 0.25, 0.625, 0.25, 0.875, 0.25, 0.625, 0.25, 0.875, 0.25, 0.875, 0.25, 0.625, 0.25, 0.625, 0.25, 0.625, 0.5, 0.625, 0.5, 0.625, 0.25, 0.625, 0.5, 0.625, 0.25, 0.625, 0.25, 0.625, 0.5),
		null, ; No UV2,
		null, ; No Bones,
		null, ; No Weights,
		IntArray(0, 2, 1, 0, 3, 2, 4, 6, 5, 4, 7, 6, 8, 10, 9, 8, 11, 10, 12, 14, 13, 12, 15, 14, 16, 18, 17, 16, 19, 18, 20, 22, 21, 20, 23, 22, 24, 26, 25, 24, 27, 26, 28, 30, 29, 28, 31, 30, 32, 34, 33, 32, 35, 34, 36, 38, 37, 36, 39, 38, 40, 42, 41, 40, 43, 42, 44, 46, 45, 44, 47, 46, 48, 50, 49, 48, 51, 50, 52, 54, 53, 52, 55, 54, 56, 58, 57, 56, 59, 58, 60, 62, 61, 60, 63, 62, 64, 66, 65, 64, 67, 66, 68, 70, 69, 68, 71, 70, 72, 74, 73, 72, 75, 74, 76, 78, 77, 76, 79, 78, 80, 82, 81, 80, 83, 82, 84, 86, 85, 84, 87, 86, 88, 90, 89, 88, 91, 90, 92, 94, 93, 92, 95, 94, 96, 98, 97, 96, 99, 98, 100, 102, 101, 100, 103, 102, 104, 106, 105, 104, 107, 106, 108, 110, 109, 108, 111, 110, 112, 114, 113, 112, 115, 114, 116, 118, 117, 116, 119, 118, 120, 122, 121, 120, 123, 122, 124, 126, 125, 124, 127, 126, 128, 130, 129, 128, 131, 130, 132, 134, 133, 132, 135, 134, 136, 138, 137, 136, 139, 138, 140, 142, 141, 140, 143, 142, 144, 146, 145, 144, 147, 146, 148, 150, 149, 148, 151, 150, 152, 154, 153, 152, 155, 154, 156, 158, 157, 156, 159, 158, 160, 162, 161, 160, 163, 162, 164, 166, 165, 164, 167, 166, 168, 170, 169, 168, 171, 170, 172, 174, 173, 172, 175, 174, 176, 178, 177, 176, 179, 178, 180, 182, 181, 180, 183, 182, 184, 186, 185, 184, 187, 186, 188, 190, 189, 188, 191, 190)
	],
	"morph_arrays":[]
}

[node type="Spatial" name="Scene"]

[node name="Tank" type="MeshInstance" parent="."]

mesh = SubResource(1)
visible = true
transform = Transform(1.0, 0.0, 0.0, 0.0, 1.0, 0.0, 0.0, 0.0, 1.0, 0.0, 0.0, 0.0)

[node name="TankGlow" type="MeshInstance" parent="Tank"]

mesh = SubResource(2)
visible = true
transform = Transform(1.0, 0.0, 0.0, 0.0, 1.0, 0.0, 0.0, 0.0, 1.0, 0.0, 0.0, 0.0)

[node name="TurretPhysics" type="KinematicBody" parent="."]

transform = Transform(1.0, 0.0, 0.0, 0.0, 1.0, 0.0, 0.0, 0.0, 1.0, 0.0, 0.0, 0.0)
collision_layer = 1
collision_mask = 1

[node name="TurretCollision" type="CollisionShape" parent="TurretPhysics"]

transform = Transform(1.0, 0.0, 0.0, 0.0, -4.37114e-08, 1.0, 0.0, -1.0, -4.37114e-08, 0.0, 0.0, 0.0)
shape = SubResource(3)

[node name="Turret" type="MeshInstance" parent="TurretPhysics/TurretCollision"]

mesh = SubResource(4)
visible = true
transform = Transform(1.0, 0.0, 0.0, 0.0, -4.37114e-08, -1.0, 0.0, 1.0, -4.37114e-08, 0.0, 0.0, 0.0)

[node name="TurretGlow" type="MeshInstance" parent="TurretPhysics/TurretCollision/Turret"]

mesh = SubResource(5)
visible = true
transform = Transform(1.0, 0.0, 0.0, 0.0, 1.0, 0.0, 0.0, 0.0, 1.0, 0.0, 0.0, 0.0)

[node name="WeaponL" type="Spatial" parent="TurretPhysics/TurretCollision/Turret"]

transform = Transform(1.0, 0.0, 0.0, 0.0, 1.0, 0.0, 0.0, 0.0, 1.0, 1.5, 2.2, -1.0)

[node name="WeaponR" type="Spatial" parent="TurretPhysics/TurretCollision/Turret"]

transform = Transform(1.0, 0.0, 0.0, 0.0, 1.0, 0.0, 0.0, 0.0, 1.0, -1.5, 2.2, -1.0)
