[gd_scene load_steps=4 format=2]

[ext_resource path="res://objects/tank/TankExplosion.glb" type="PackedScene" id=1]
[ext_resource path="res://assets/sounds/explode.wav" type="AudioStream" id=2]

[sub_resource type="Animation" id=1]
resource_name = "autoplay"
tracks/0/type = "value"
tracks/0/path = NodePath("TankExplosion:blend_shapes/Explode")
tracks/0/interp = 1
tracks/0/loop_wrap = true
tracks/0/imported = false
tracks/0/enabled = true
tracks/0/keys = {
"times": PoolRealArray( 0, 0.2 ),
"transitions": PoolRealArray( 1, 1 ),
"update": 0,
"values": [ 0.0, 1.0 ]
}
tracks/1/type = "audio"
tracks/1/path = NodePath("AudioStreamPlayer3D")
tracks/1/interp = 1
tracks/1/loop_wrap = true
tracks/1/imported = false
tracks/1/enabled = true
tracks/1/keys = {
"clips": [ {
"end_offset": 0.0,
"start_offset": 0.0,
"stream": ExtResource( 2 )
} ],
"times": PoolRealArray( 0 )
}
tracks/2/type = "method"
tracks/2/path = NodePath(".")
tracks/2/interp = 1
tracks/2/loop_wrap = true
tracks/2/imported = false
tracks/2/enabled = true
tracks/2/keys = {
"times": PoolRealArray( 1 ),
"transitions": PoolRealArray( 1 ),
"values": [ {
"args": [  ],
"method": "queue_free"
} ]
}
tracks/3/type = "value"
tracks/3/path = NodePath("TankExplosion:visible")
tracks/3/interp = 1
tracks/3/loop_wrap = true
tracks/3/imported = false
tracks/3/enabled = true
tracks/3/keys = {
"times": PoolRealArray( 0, 0.3 ),
"transitions": PoolRealArray( 1, 1 ),
"update": 1,
"values": [ true, false ]
}

[node name="TankExplosion" instance=ExtResource( 1 )]

[node name="TankExplosion" parent="." index="0"]
visible = false
blend_shapes/Explode = 1.0

[node name="AnimationPlayer" type="AnimationPlayer" parent="." index="1"]
autoplay = "autoplay"
anims/autoplay = SubResource( 1 )

[node name="AudioStreamPlayer3D" type="AudioStreamPlayer3D" parent="." index="2"]
stream = ExtResource( 2 )
unit_db = 20.0
unit_size = 5.0
